id,label,predict,check
m402955430,1.0,0.0,1
m848428140,1.0,1.0,0
m416171560,1.0,0.0,1
m194071430,1.0,0.0,1
m622541720,0.0,0.0,3
m541640356,1.0,0.0,1
m366072215,1.0,0.0,1
m736504930,0.0,0.0,3
m678891325,0.0,0.0,3
m475245076,1.0,1.0,0
m306188999,0.0,0.0,3
m968168760,0.0,0.0,3
m590555070,1.0,1.0,0
m266804098,1.0,0.0,1
m429177806,0.0,0.0,3
m410852310,0.0,0.0,3
m602948020,0.0,0.0,3
m647280373,0.0,1.0,2
m833447613,0.0,0.0,3
m538295415,0.0,0.0,3
m338327842,1.0,0.0,1
m799157936,0.0,0.0,3
m232486654,1.0,1.0,0
m933871628,1.0,0.0,1
m670877634,1.0,0.0,1
m372306283,0.0,1.0,2
m216232520,0.0,1.0,2
m233561899,1.0,1.0,0
m652245500,0.0,0.0,3
m775891220,1.0,0.0,1
m167773703,1.0,1.0,0
m529708052,0.0,0.0,3
m982594950,1.0,1.0,0
m187761918,1.0,0.0,1
m563870266,0.0,0.0,3
m789373574,1.0,0.0,1
m339831334,1.0,1.0,0
m508914292,0.0,0.0,3
m792826700,1.0,1.0,0
m933697363,1.0,1.0,0
m375069820,0.0,0.0,3
m916313197,1.0,0.0,1
m231508437,1.0,1.0,0
m244223100,1.0,1.0,0
m813370551,0.0,1.0,2
m534976700,1.0,1.0,0
m332530824,1.0,1.0,0
m360367460,0.0,0.0,3
m882600317,0.0,0.0,3
m163770450,1.0,1.0,0
m579807500,1.0,0.0,1
m514902294,0.0,0.0,3
m950072275,0.0,0.0,3
m294248102,0.0,1.0,2
m524933030,0.0,0.0,3
m103617703,0.0,0.0,3
m980291708,1.0,1.0,0
m178234614,1.0,0.0,1
m194980040,0.0,0.0,3
m319515393,1.0,1.0,0
m556154795,0.0,0.0,3
m823387085,1.0,1.0,0
m950908235,1.0,1.0,0
m826596759,1.0,0.0,1
m742962715,0.0,0.0,3
m570427950,1.0,1.0,0
m104855296,0.0,0.0,3
m457418160,1.0,0.0,1
m418463604,0.0,0.0,3
m210664690,1.0,1.0,0
m546847369,0.0,0.0,3
m465279640,0.0,0.0,3
m175581157,0.0,0.0,3
m806365718,0.0,1.0,2
m578679260,0.0,0.0,3
m875339126,1.0,1.0,0
m690409360,1.0,1.0,0
m317145201,0.0,0.0,3
m410951621,0.0,0.0,3
m369586070,0.0,0.0,3
m557441558,0.0,0.0,3
m791306075,1.0,1.0,0
m119362007,1.0,1.0,0
m965163194,1.0,0.0,1
m219513425,1.0,1.0,0
m956438230,0.0,0.0,3
m282016527,0.0,0.0,3
m452901790,0.0,0.0,3
m913294890,1.0,1.0,0
m268117473,0.0,0.0,3
m449237578,0.0,0.0,3
m203764634,0.0,0.0,3
m204127668,0.0,0.0,3
m832500520,0.0,0.0,3
m422835457,1.0,1.0,0
m853501649,1.0,1.0,0
m205029120,0.0,0.0,3
m641893034,0.0,0.0,3
m910041400,0.0,0.0,3
m150373731,0.0,0.0,3
m319900317,1.0,1.0,0
m512970840,1.0,1.0,0
m882566569,0.0,0.0,3
m835208295,1.0,0.0,1
m378346054,0.0,0.0,3
m838125790,0.0,0.0,3
m441513600,1.0,1.0,0
m464104691,0.0,0.0,3
m600759330,1.0,0.0,1
m929572790,0.0,1.0,2
m140413798,0.0,1.0,2
m389495043,0.0,1.0,2
m428900918,0.0,0.0,3
m310640150,0.0,0.0,3
m489426147,0.0,0.0,3
m458733620,0.0,0.0,3
m501758244,1.0,0.0,1
m680375591,1.0,1.0,0
m334832540,1.0,1.0,0
m822033828,0.0,0.0,3
m748815513,0.0,0.0,3
m441905530,1.0,0.0,1
m368406663,0.0,0.0,3
m727402137,0.0,0.0,3
m717581990,0.0,0.0,3
m455027519,1.0,1.0,0
m742516136,1.0,1.0,0
m221290226,0.0,1.0,2
m274841205,0.0,0.0,3
m683697458,0.0,0.0,3
m659344001,1.0,0.0,1
m400482712,1.0,0.0,1
m307998460,0.0,0.0,3
m997527841,1.0,1.0,0
m886615770,1.0,0.0,1
m517183240,1.0,0.0,1
m272748345,1.0,1.0,0
m555071480,0.0,1.0,2
m690485178,0.0,0.0,3
m640882339,1.0,0.0,1
m674022198,1.0,1.0,0
m503334355,1.0,0.0,1
m485692760,1.0,0.0,1
m517896744,1.0,1.0,0
m660002387,0.0,0.0,3
m766650360,1.0,0.0,1
m451373117,1.0,1.0,0
m546187427,1.0,1.0,0
m462713507,1.0,0.0,1
m706735767,0.0,0.0,3
m628561887,0.0,0.0,3
m259222580,0.0,0.0,3
m783378898,0.0,0.0,3
m361078948,0.0,0.0,3
m291942380,1.0,0.0,1
m397668240,0.0,0.0,3
m252414596,0.0,1.0,2
m581805528,1.0,0.0,1
m557793698,0.0,1.0,2
m995589037,1.0,0.0,1
m763061673,0.0,0.0,3
m859417120,1.0,0.0,1
m618263660,0.0,0.0,3
m596808907,0.0,1.0,2
m106026043,1.0,1.0,0
m994897903,0.0,0.0,3
m992326810,0.0,0.0,3
m270205744,0.0,0.0,3
m479778259,1.0,0.0,1
m735084634,0.0,0.0,3
m674258330,0.0,1.0,2
m702149115,0.0,0.0,3
m207322340,0.0,0.0,3
m334155490,1.0,1.0,0
m188709791,1.0,0.0,1
m224764560,1.0,0.0,1
m515452657,1.0,0.0,1
m866976706,0.0,1.0,2
m596160266,0.0,0.0,3
m325129736,1.0,0.0,1
m240784720,1.0,0.0,1
m144975940,0.0,0.0,3
m991791550,1.0,0.0,1
m510468129,0.0,0.0,3
m111844970,1.0,0.0,1
m379173340,1.0,1.0,0
m761423208,1.0,0.0,1
m668619195,0.0,0.0,3
m846162270,0.0,1.0,2
m131922060,0.0,0.0,3
m618737795,0.0,0.0,3
m432903580,0.0,1.0,2
m778689732,1.0,1.0,0
m862846164,1.0,1.0,0
m485197075,1.0,1.0,0
m140125950,1.0,0.0,1
m821301330,1.0,1.0,0
m356633890,0.0,0.0,3
m697066427,1.0,1.0,0
m518001490,1.0,0.0,1
m683295670,0.0,0.0,3
m856016280,1.0,1.0,0
m470971390,1.0,1.0,0
m746226149,1.0,0.0,1
m540414505,0.0,0.0,3
m878571950,1.0,1.0,0
m743092306,0.0,0.0,3
m539098590,0.0,0.0,3
m330233239,0.0,0.0,3
m911930465,1.0,0.0,1
m671091337,0.0,1.0,2
m811962814,1.0,0.0,1
m527014952,1.0,1.0,0
m267700180,1.0,0.0,1
m657819050,0.0,0.0,3
m571601750,0.0,0.0,3
m357385171,0.0,0.0,3
m914915277,1.0,1.0,0
m756152540,0.0,0.0,3
m923850905,1.0,0.0,1
m164849820,0.0,0.0,3
m541245822,0.0,0.0,3
m915034879,1.0,1.0,0
m873869389,1.0,0.0,1
m847536240,0.0,0.0,3
m324079810,1.0,1.0,0
m945278845,1.0,0.0,1
m902411280,0.0,0.0,3
m503852853,0.0,0.0,3
m704766383,1.0,0.0,1
m665021880,0.0,0.0,3
m123795610,0.0,0.0,3
m574548803,1.0,0.0,1
m714278660,1.0,1.0,0
m165454395,1.0,0.0,1
m476344660,0.0,0.0,3
m231337190,0.0,1.0,2
m133819253,1.0,1.0,0
m871343080,1.0,0.0,1
m370009480,0.0,0.0,3
m672908256,1.0,1.0,0
m255929400,0.0,0.0,3
m937258415,0.0,0.0,3
m335552325,0.0,0.0,3
m184434980,1.0,0.0,1
m777520462,0.0,0.0,3
m643030740,0.0,0.0,3
m575609900,0.0,0.0,3
m455450028,0.0,0.0,3
m590776400,0.0,0.0,3
m776316735,0.0,0.0,3
m338128353,1.0,1.0,0
m518574091,1.0,1.0,0
m342418304,1.0,0.0,1
m798894774,1.0,0.0,1
m767804009,1.0,1.0,0
m199060635,1.0,1.0,0
m503068297,1.0,1.0,0
m889692350,0.0,0.0,3
m531565020,0.0,0.0,3
m648521557,0.0,0.0,3
m509089162,1.0,1.0,0
m743743158,1.0,0.0,1
m169824345,0.0,1.0,2
m192758313,0.0,0.0,3
m793291200,0.0,1.0,2
m817827316,0.0,1.0,2
m985891330,1.0,1.0,0
m430780840,0.0,1.0,2
m643449880,1.0,0.0,1
m101577692,1.0,1.0,0
m592343193,0.0,1.0,2
m144238449,1.0,0.0,1
m109450950,1.0,1.0,0
m992267660,0.0,0.0,3
m390688130,1.0,1.0,0
m843371256,1.0,0.0,1
m856225580,1.0,0.0,1
m483527112,0.0,1.0,2
m868078681,0.0,0.0,3
m671490330,0.0,0.0,3
m645585926,0.0,0.0,3
m978899020,0.0,0.0,3
m143402000,1.0,1.0,0
m559701185,1.0,0.0,1
m886809700,1.0,1.0,0
m613669960,0.0,0.0,3
m664127920,1.0,1.0,0
m148518800,1.0,0.0,1
m746698646,0.0,0.0,3
m587374033,1.0,0.0,1
m947375356,0.0,0.0,3
m584474653,0.0,0.0,3
m338880642,1.0,0.0,1
m923552885,0.0,0.0,3
m306889510,1.0,0.0,1
m109595364,1.0,0.0,1
m495010408,0.0,0.0,3
m983688775,1.0,0.0,1
m577581525,1.0,1.0,0
m981199552,0.0,0.0,3
m666560274,1.0,1.0,0
m698185564,1.0,1.0,0
m376717900,1.0,1.0,0
m164894590,0.0,0.0,3
m285208977,0.0,0.0,3
m449822179,1.0,1.0,0
m884692547,1.0,1.0,0
m815074250,1.0,1.0,0
m973382356,1.0,1.0,0
m228354308,0.0,1.0,2
m186934704,0.0,0.0,3
m728032739,0.0,0.0,3
m329408910,1.0,1.0,0
m895510703,1.0,1.0,0
m593043806,0.0,0.0,3
m590362290,0.0,0.0,3
m259127650,1.0,1.0,0
m247791680,0.0,0.0,3
m324045814,1.0,0.0,1
m808632600,1.0,1.0,0
m939180091,1.0,0.0,1
m224169415,0.0,0.0,3
m831094793,1.0,1.0,0
m162008263,0.0,0.0,3
m403412757,0.0,0.0,3
m482164328,1.0,1.0,0
m483598692,1.0,1.0,0
m958150560,1.0,0.0,1
m332817722,1.0,0.0,1
m399939728,1.0,1.0,0
m716906990,0.0,0.0,3
m187327376,0.0,0.0,3
m188790340,1.0,1.0,0
m925211173,1.0,1.0,0
m127426470,0.0,0.0,3
m224534611,0.0,0.0,3
m659436180,0.0,0.0,3
m995152130,0.0,1.0,2
m105477243,1.0,0.0,1
m939623250,1.0,0.0,1
m269438253,1.0,1.0,0
m145068025,1.0,1.0,0
m704515400,0.0,0.0,3
m293528995,1.0,0.0,1
m188921508,1.0,1.0,0
m445850482,0.0,0.0,3
m186686847,1.0,0.0,1
m872521460,1.0,1.0,0
m841015274,1.0,1.0,0
m206515660,0.0,0.0,3
m410105160,0.0,0.0,3
m101531907,1.0,1.0,0
m839924465,1.0,0.0,1
m326863912,1.0,1.0,0
m764574640,1.0,1.0,0
m214710625,0.0,0.0,3
m196846613,1.0,1.0,0
m594725961,1.0,1.0,0
m244627880,1.0,1.0,0
m245016320,0.0,0.0,3
m556979895,0.0,1.0,2
m410441140,1.0,1.0,0
m946583358,0.0,1.0,2
m198646110,0.0,0.0,3
m294429698,0.0,0.0,3
m593502640,0.0,0.0,3
m359308492,0.0,0.0,3
m109153330,0.0,0.0,3
m823285941,1.0,1.0,0
m599136230,0.0,0.0,3
m557128744,0.0,0.0,3
m374706863,0.0,1.0,2
m292600258,0.0,0.0,3
m892481710,0.0,0.0,3
m351934230,0.0,0.0,3
m895839344,1.0,1.0,0
m968034436,0.0,0.0,3
m887013750,1.0,0.0,1
m569170380,0.0,1.0,2
m488538120,0.0,0.0,3
m376998120,0.0,0.0,3
m403619253,0.0,0.0,3
m705005458,0.0,0.0,3
m972766561,0.0,0.0,3
m918034789,1.0,0.0,1
m824611200,0.0,0.0,3
m278093342,1.0,1.0,0
m581512540,1.0,0.0,1
m632419406,1.0,0.0,1
m842321213,1.0,0.0,1
m762770680,1.0,0.0,1
m826494715,0.0,0.0,3
m209320127,0.0,0.0,3
m440565410,0.0,0.0,3
m482211237,0.0,1.0,2
m106524447,0.0,0.0,3
m778439257,0.0,0.0,3
m137988196,1.0,1.0,0
m737867861,1.0,1.0,0
m445326622,1.0,1.0,0
m907380890,0.0,0.0,3
m443794413,1.0,0.0,1
m418740510,0.0,0.0,3
m909836993,0.0,1.0,2
m520306450,1.0,0.0,1
m301006133,1.0,0.0,1
m975313164,0.0,0.0,3
m124429183,1.0,0.0,1
m355371615,1.0,1.0,0
m672934309,1.0,1.0,0
m400647364,1.0,1.0,0
m889097590,0.0,0.0,3
m340488270,0.0,0.0,3
m374356352,0.0,0.0,3
m626154580,0.0,0.0,3
m398007830,1.0,1.0,0
m292239430,1.0,1.0,0
m281799355,1.0,0.0,1
m523836876,0.0,0.0,3
m537198490,1.0,1.0,0
m754532410,0.0,0.0,3
m788033630,0.0,0.0,3
m864607540,1.0,1.0,0
m489882763,1.0,1.0,0
m325693855,0.0,0.0,3
m588303614,0.0,0.0,3
m864811130,0.0,0.0,3
m687776974,1.0,1.0,0
m706714820,0.0,0.0,3
m614902080,0.0,0.0,3
m921600240,1.0,1.0,0
m312349095,1.0,0.0,1
m656175544,0.0,0.0,3
m775669440,0.0,0.0,3
m951694789,1.0,0.0,1
m124199539,1.0,0.0,1
m129043019,0.0,0.0,3
m939500869,1.0,1.0,0
m684760245,0.0,0.0,3
m969912420,0.0,0.0,3
m113247313,0.0,1.0,2
m804253360,1.0,0.0,1
m464499277,1.0,0.0,1
m402860413,0.0,0.0,3
m431517636,0.0,0.0,3
m578446120,0.0,1.0,2
m564548823,0.0,0.0,3
m408828412,0.0,0.0,3
m323725060,0.0,0.0,3
m242499479,1.0,1.0,0
m419104030,1.0,1.0,0
m505610071,0.0,0.0,3
m845010240,1.0,0.0,1
m518738030,1.0,0.0,1
m465506507,0.0,0.0,3
m958554940,1.0,0.0,1
m616876782,1.0,1.0,0
m857524084,1.0,1.0,0
m812860450,1.0,0.0,1
m851687580,1.0,0.0,1
m143543772,1.0,1.0,0
m248248260,0.0,1.0,2
m749951547,0.0,0.0,3
m820095727,0.0,0.0,3
m302832410,0.0,0.0,3
m838947384,1.0,0.0,1
m319994748,0.0,0.0,3
m537547344,0.0,0.0,3
m679231910,0.0,0.0,3
m528854261,0.0,0.0,3
m341995670,1.0,1.0,0
m832140290,0.0,0.0,3
m732939206,0.0,0.0,3
m484879695,1.0,0.0,1
m368061985,0.0,0.0,3
m104676290,0.0,0.0,3
m125991796,0.0,0.0,3
m107936147,1.0,0.0,1
m146010918,0.0,0.0,3
m425964978,0.0,0.0,3
m723777150,0.0,1.0,2
m664116464,0.0,0.0,3
m910728570,0.0,0.0,3
m877830113,1.0,1.0,0
m794792981,0.0,0.0,3
m372617690,0.0,1.0,2
m941747289,1.0,0.0,1
m376720092,1.0,0.0,1
m987378758,0.0,0.0,3
m337813180,1.0,1.0,0
m619097843,0.0,0.0,3
m853035154,1.0,0.0,1
m424401620,0.0,0.0,3
m651097588,1.0,0.0,1
m149675242,1.0,0.0,1
m351396744,1.0,0.0,1
m828937200,1.0,1.0,0
m363805810,1.0,1.0,0
m273058490,1.0,1.0,0
m680884719,1.0,0.0,1
m812776170,1.0,1.0,0
m249165953,0.0,0.0,3
m251492152,0.0,0.0,3
m247467840,0.0,0.0,3
m813829498,0.0,0.0,3
m922086740,1.0,0.0,1
m237203900,0.0,1.0,2
m164400088,1.0,1.0,0
m221420039,0.0,0.0,3
m115509329,0.0,0.0,3
m299955352,0.0,0.0,3
m897396515,0.0,1.0,2
m997938133,0.0,0.0,3
m931909971,0.0,0.0,3
m544770486,0.0,0.0,3
m595403032,0.0,0.0,3
m709339060,0.0,0.0,3
m792684520,1.0,1.0,0
m802111287,1.0,1.0,0
m512478890,1.0,1.0,0
m320210298,1.0,1.0,0
m467953920,0.0,0.0,3
m263946120,1.0,1.0,0
m354470381,0.0,0.0,3
m317150969,0.0,0.0,3
m383950962,1.0,0.0,1
m550490558,1.0,1.0,0
m545299956,0.0,0.0,3
m808771570,0.0,0.0,3
m564934197,0.0,0.0,3
m792278162,0.0,0.0,3
m610716994,1.0,1.0,0
m556948205,1.0,0.0,1
m959553496,0.0,0.0,3
m799586700,0.0,1.0,2
m446251385,0.0,0.0,3
m278488448,0.0,0.0,3
m938864793,1.0,1.0,0
m171389702,1.0,1.0,0
m585776100,0.0,0.0,3
m950779880,1.0,1.0,0
m606863153,0.0,0.0,3
m404517375,0.0,1.0,2
m737408127,1.0,0.0,1
m802632116,0.0,0.0,3
m725821073,0.0,0.0,3
m270381216,0.0,0.0,3
m906696520,0.0,0.0,3
m232228950,0.0,1.0,2
m929524326,1.0,1.0,0
m853838483,1.0,0.0,1
m789653526,0.0,0.0,3
m628181902,0.0,0.0,3
m857296627,0.0,0.0,3
m759236712,1.0,0.0,1
m477416493,0.0,1.0,2
m546990560,1.0,1.0,0
m147247095,1.0,1.0,0
m357944281,0.0,0.0,3
m660816790,0.0,0.0,3
m931263160,0.0,0.0,3
m410071077,1.0,1.0,0
m114318010,1.0,0.0,1
m104152689,1.0,1.0,0
m848735831,1.0,1.0,0
m188207202,0.0,1.0,2
m395352260,1.0,0.0,1
m345205791,0.0,0.0,3
m430414511,0.0,1.0,2
m361190372,0.0,0.0,3
m539109886,1.0,0.0,1
m157623930,0.0,0.0,3
m835613110,0.0,0.0,3
m734569053,0.0,0.0,3
m146958848,1.0,0.0,1
m892064587,0.0,0.0,3
m632268909,1.0,1.0,0
m978255771,0.0,0.0,3
m510263130,1.0,1.0,0
m686395381,1.0,0.0,1
m163256510,0.0,0.0,3
m314256950,1.0,1.0,0
m747720818,0.0,0.0,3
m714175971,1.0,1.0,0
m598496449,1.0,1.0,0
m976401811,1.0,0.0,1
m375963370,0.0,0.0,3
m869826822,0.0,0.0,3
m748007366,1.0,0.0,1
m364060460,1.0,0.0,1
m481923155,0.0,0.0,3
m232624877,1.0,0.0,1
m199241592,0.0,1.0,2
m617986147,1.0,0.0,1
m597871110,1.0,1.0,0
m812741710,0.0,0.0,3
m186471167,0.0,0.0,3
m513408936,0.0,0.0,3
m550130018,1.0,1.0,0
m960534527,1.0,0.0,1
m940746845,0.0,0.0,3
m869431962,1.0,0.0,1
m522559401,0.0,0.0,3
m677003780,0.0,0.0,3
m661943270,1.0,0.0,1
m798559750,1.0,0.0,1
m405883160,1.0,1.0,0
m121041631,0.0,1.0,2
m251088165,0.0,0.0,3
m453554970,0.0,0.0,3
m793115431,1.0,0.0,1
m505878480,0.0,0.0,3
m652489160,0.0,0.0,3
m226270457,0.0,0.0,3
m985751215,1.0,1.0,0
m478551913,0.0,0.0,3
m167443130,1.0,0.0,1
m559051544,1.0,1.0,0
m934380845,0.0,0.0,3
m436164404,0.0,0.0,3
m912809052,1.0,0.0,1
m329928750,0.0,0.0,3
m975950516,1.0,0.0,1
m722931560,1.0,1.0,0
m318783839,0.0,0.0,3
m745543216,0.0,0.0,3
m411630478,1.0,0.0,1
m460582625,0.0,0.0,3
m707409770,0.0,0.0,3
m171752220,0.0,0.0,3
m693200397,0.0,0.0,3
m707096880,1.0,1.0,0
m699939097,1.0,1.0,0
m418965800,0.0,0.0,3
m218490334,1.0,0.0,1
m557035444,0.0,1.0,2
m223598139,0.0,0.0,3
m218832175,1.0,1.0,0
m357660603,0.0,1.0,2
m928632042,0.0,1.0,2
m215541339,1.0,0.0,1
m255313182,1.0,1.0,0
m197475759,0.0,0.0,3
m441122413,1.0,1.0,0
m650201571,0.0,0.0,3
m207384842,0.0,0.0,3
m633864670,1.0,0.0,1
m687467698,0.0,0.0,3
m577089830,0.0,0.0,3
m565365562,0.0,1.0,2
m298730288,1.0,1.0,0
m461778705,0.0,0.0,3
m616249717,1.0,1.0,0
m303329093,0.0,0.0,3
m401210410,0.0,0.0,3
m573649798,0.0,0.0,3
m820901854,1.0,0.0,1
m112036864,0.0,0.0,3
m304255280,0.0,1.0,2
m913743757,0.0,0.0,3
m989681837,1.0,0.0,1
m744008520,0.0,0.0,3
m612343255,0.0,0.0,3
m417739699,0.0,0.0,3
m595611897,0.0,0.0,3
m611593988,0.0,0.0,3
m302705703,1.0,1.0,0
m501715792,1.0,1.0,0
m103071599,0.0,0.0,3
m545236142,0.0,0.0,3
m241443795,0.0,0.0,3
m363611554,0.0,0.0,3
m658873361,0.0,0.0,3
m870616117,1.0,1.0,0
m551739208,1.0,1.0,0
m389715075,1.0,1.0,0
m215733182,1.0,1.0,0
m158465270,1.0,1.0,0
m636453692,1.0,0.0,1
m513436222,0.0,1.0,2
m693114620,1.0,1.0,0
m267251632,1.0,0.0,1
m804939661,1.0,0.0,1
m181030047,1.0,1.0,0
m258512110,1.0,1.0,0
m256044852,0.0,1.0,2
m531063720,1.0,1.0,0
m850828410,1.0,0.0,1
m488228764,1.0,0.0,1
m665722939,0.0,0.0,3
m218801250,0.0,0.0,3
m981355350,0.0,0.0,3
m774566980,1.0,0.0,1
m380976927,0.0,0.0,3
m491167288,1.0,1.0,0
m973627277,1.0,1.0,0
m287973531,0.0,0.0,3
m169317590,0.0,0.0,3
m609739186,1.0,1.0,0
m747896272,0.0,0.0,3
m562572428,0.0,1.0,2
m529246686,0.0,0.0,3
m664754253,0.0,1.0,2
m489220466,0.0,0.0,3
m667127090,0.0,1.0,2
m556060563,0.0,0.0,3
m679658726,1.0,0.0,1
m374710350,1.0,1.0,0
m946757970,1.0,1.0,0
m739988055,0.0,0.0,3
m885959190,1.0,1.0,0
m282827178,1.0,1.0,0
m330929925,1.0,1.0,0
m228783670,0.0,0.0,3
m701984460,1.0,0.0,1
m966066126,0.0,1.0,2
m430515413,0.0,0.0,3
m868123647,1.0,0.0,1
m206633060,0.0,0.0,3
m622257967,0.0,1.0,2
m507766150,0.0,0.0,3
m557496178,1.0,0.0,1
m483028620,1.0,1.0,0
m714294900,1.0,1.0,0
m895542107,1.0,1.0,0
m541092680,1.0,0.0,1
m140277110,0.0,1.0,2
m921760419,0.0,0.0,3
m861618740,0.0,0.0,3
m814580691,1.0,1.0,0
m841113793,1.0,1.0,0
m730025510,1.0,0.0,1
m412634694,0.0,0.0,3
m837885509,0.0,0.0,3
m908186729,0.0,0.0,3
m577348280,0.0,1.0,2
m267167080,0.0,0.0,3
m361700573,0.0,1.0,2
m923775654,1.0,0.0,1
m320066089,1.0,1.0,0
m562970603,0.0,0.0,3
m829424235,1.0,0.0,1
m625283130,1.0,1.0,0
m779454840,1.0,1.0,0
m518335880,0.0,0.0,3
m659855090,0.0,0.0,3
m207568908,0.0,0.0,3
m890470849,0.0,0.0,3
m236834830,0.0,0.0,3
m311574105,0.0,0.0,3
m261699230,0.0,0.0,3
m824120396,0.0,0.0,3
m243805885,0.0,0.0,3
m131430240,0.0,0.0,3
m329429587,1.0,1.0,0
m397986642,1.0,1.0,0
m892510542,0.0,0.0,3
m157553572,0.0,1.0,2
m601441673,1.0,1.0,0
m218593430,0.0,0.0,3
m263868984,0.0,0.0,3
m453286610,0.0,0.0,3
m998263540,1.0,1.0,0
m639081170,0.0,0.0,3
m704398210,0.0,0.0,3
m788311042,1.0,0.0,1
m877284770,1.0,1.0,0
m643840344,1.0,0.0,1
m370014856,1.0,1.0,0
m834511520,1.0,0.0,1
m781670296,0.0,0.0,3
m250820453,0.0,0.0,3
m745057221,0.0,0.0,3
m359365209,0.0,0.0,3
m360107337,1.0,1.0,0
m587067045,0.0,0.0,3
m489886088,0.0,0.0,3
m122578876,1.0,1.0,0
m697416639,1.0,0.0,1
m291323970,0.0,0.0,3
m855258739,0.0,0.0,3
m408547900,1.0,0.0,1
m400319460,0.0,0.0,3
m467365580,1.0,1.0,0
m163295110,0.0,1.0,2
m633794930,0.0,0.0,3
m864741508,0.0,1.0,2
m872797265,1.0,1.0,0
m998815590,1.0,1.0,0
m158506090,0.0,0.0,3
m555967420,1.0,1.0,0
m523902885,1.0,1.0,0
m299578610,0.0,1.0,2
m913385736,1.0,0.0,1
m979721314,1.0,1.0,0
m371054609,0.0,0.0,3
m420388758,0.0,0.0,3
m580343868,0.0,0.0,3
m657822619,0.0,1.0,2
m175205084,1.0,0.0,1
m264426723,1.0,0.0,1
m656856249,0.0,0.0,3
m730657680,1.0,1.0,0
m114749741,0.0,0.0,3
m693881480,1.0,0.0,1
m965707080,1.0,0.0,1
m349649711,1.0,0.0,1
m959604898,1.0,1.0,0
m707937522,0.0,0.0,3
m517250420,0.0,0.0,3
m330768080,1.0,0.0,1
m814879215,0.0,0.0,3
m716607930,0.0,0.0,3
m584885925,1.0,1.0,0
m689989010,1.0,1.0,0
m497393699,0.0,0.0,3
m889096011,0.0,0.0,3
m436472165,1.0,1.0,0
m245328320,0.0,0.0,3
m753634053,0.0,0.0,3
m168359873,1.0,0.0,1
m123167810,1.0,0.0,1
m571405380,0.0,0.0,3
m329671074,1.0,1.0,0
m945135196,0.0,1.0,2
m113104444,0.0,0.0,3
m934409982,1.0,1.0,0
m907925211,0.0,0.0,3
m516177450,0.0,0.0,3
m918161467,0.0,1.0,2
m244611558,0.0,0.0,3
m695887649,0.0,0.0,3
m339557620,0.0,1.0,2
m836523917,0.0,0.0,3
m326418460,0.0,0.0,3
m396516238,1.0,0.0,1
m175260980,0.0,0.0,3
m545173170,0.0,0.0,3
m716568665,0.0,0.0,3
m111910604,0.0,0.0,3
m808484760,0.0,0.0,3
m324286675,1.0,1.0,0
m958022766,1.0,1.0,0
m159304900,1.0,0.0,1
m108974987,0.0,0.0,3
m902333466,0.0,0.0,3
m731602690,1.0,0.0,1
m971804681,1.0,1.0,0
m339260380,1.0,1.0,0
m219987855,1.0,1.0,0
m913156453,1.0,1.0,0
m665463824,1.0,1.0,0
m131766400,1.0,1.0,0
m427730996,0.0,0.0,3
m594605410,1.0,0.0,1
m693414915,1.0,1.0,0
m958849055,1.0,1.0,0
m165039470,0.0,0.0,3
m724802260,0.0,0.0,3
m881842463,0.0,0.0,3
m847200507,0.0,0.0,3
m320964590,0.0,0.0,3
m433194890,1.0,1.0,0
m645860164,0.0,0.0,3
m623462231,0.0,0.0,3
m625524160,1.0,0.0,1
m114471900,0.0,0.0,3
m921997820,0.0,1.0,2
m906199873,0.0,0.0,3
m729196186,0.0,0.0,3
m158027668,1.0,1.0,0
m152807531,0.0,0.0,3
m742753126,0.0,0.0,3
m261963397,1.0,1.0,0
m169973330,0.0,0.0,3
m408321699,0.0,0.0,3
m121903590,1.0,1.0,0
m139344920,1.0,0.0,1
m624258096,0.0,0.0,3
m388909830,0.0,0.0,3
m979770040,0.0,1.0,2
m420738287,1.0,1.0,0
m430477422,1.0,1.0,0
m811185293,0.0,0.0,3
m874119688,1.0,0.0,1
m830929844,0.0,0.0,3
m289573870,1.0,1.0,0
m232720054,0.0,1.0,2
m194592696,1.0,0.0,1
m152889283,1.0,0.0,1
m394134507,1.0,1.0,0
m881926333,0.0,0.0,3
m198498869,0.0,0.0,3
m509823314,1.0,0.0,1
m945416482,0.0,0.0,3
m129797201,1.0,0.0,1
m542561795,1.0,1.0,0
m787285080,1.0,0.0,1
m900381856,1.0,1.0,0
m119721279,0.0,0.0,3
m182125887,1.0,1.0,0
m452282796,0.0,0.0,3
m176559716,0.0,0.0,3
m512420851,1.0,0.0,1
m816952372,1.0,1.0,0
m413406260,0.0,1.0,2
m244187460,0.0,0.0,3
m180196170,1.0,1.0,0
m671067800,1.0,0.0,1
m887070136,1.0,0.0,1
m827732190,1.0,0.0,1
m224798661,0.0,1.0,2
m373035970,1.0,0.0,1
m778522660,1.0,1.0,0
m756048318,0.0,0.0,3
m450781720,0.0,0.0,3
m262419020,0.0,0.0,3
m162105761,1.0,1.0,0
m931006867,1.0,0.0,1
m200359380,0.0,0.0,3
m693758965,1.0,1.0,0
m411004560,0.0,0.0,3
m526865531,1.0,1.0,0
m170055330,0.0,0.0,3
m772374026,0.0,0.0,3
m610906600,0.0,0.0,3
m993876050,1.0,0.0,1
m663438309,0.0,0.0,3
m374166117,0.0,0.0,3
m384012300,0.0,0.0,3
m263114007,0.0,1.0,2
m973208580,1.0,1.0,0
m320364660,0.0,0.0,3
m301930841,1.0,1.0,0
m741058378,1.0,1.0,0
m655532100,1.0,0.0,1
m874960790,1.0,0.0,1
m811150980,0.0,0.0,3
m229873290,0.0,0.0,3
m327496940,0.0,0.0,3
m317923257,0.0,1.0,2
m218490244,1.0,1.0,0
m897206642,1.0,0.0,1
m807224370,0.0,0.0,3
m459299862,1.0,0.0,1
m622670989,1.0,1.0,0
m609132008,0.0,0.0,3
m788360080,1.0,1.0,0
m738058077,0.0,0.0,3
m903324026,1.0,0.0,1
m473226710,0.0,0.0,3
m980479050,1.0,1.0,0
m578709060,1.0,0.0,1
m929737960,0.0,1.0,2
m651932990,0.0,0.0,3
m378508445,1.0,0.0,1
m346506860,0.0,1.0,2
m700739600,1.0,1.0,0
m761573570,0.0,0.0,3
m258341010,0.0,0.0,3
m127527590,1.0,0.0,1
m527838012,1.0,0.0,1
m230183588,0.0,0.0,3
m865897393,0.0,0.0,3
m249882015,0.0,0.0,3
m159290422,0.0,0.0,3
m326987631,1.0,1.0,0
m978172931,0.0,0.0,3
m365172249,1.0,1.0,0
m496282400,1.0,0.0,1
m236327370,0.0,0.0,3
m688857997,0.0,0.0,3
m961314289,1.0,0.0,1
m110715370,1.0,0.0,1
m827760340,0.0,1.0,2
m904286325,1.0,1.0,0
m242279077,0.0,0.0,3
m686136080,1.0,0.0,1
m261278158,0.0,1.0,2
m405210170,1.0,1.0,0
m351541296,0.0,0.0,3
m841286152,0.0,0.0,3
m522207252,1.0,1.0,0
m560473840,0.0,0.0,3
m615159593,1.0,1.0,0
m597953900,1.0,0.0,1
m972949981,0.0,0.0,3
m485046840,1.0,1.0,0
m395492695,1.0,0.0,1
m540398682,1.0,0.0,1
m709646108,0.0,0.0,3
m476414191,1.0,1.0,0
m458274412,1.0,1.0,0
m975695220,0.0,0.0,3
m638083520,1.0,1.0,0
m629659904,1.0,0.0,1
m324065036,0.0,0.0,3
m363628936,0.0,0.0,3
m421892354,0.0,0.0,3
